Processing Blast Output: Taxonomy Clean Up
…
save only the remaining prey taxa.

blast.dat.out <- blast.dat.filter %>%
  filter(missing_rm==0 & predator_rm==0 & target_rm==0) %>%
  dplyr::select(-"missing_rm",-"predator_rm",-"target_rm")

write out.

write_csv(blast.dat.out, here(outdir, paste0(marker,"_","r",paste(run.nums,collapse="-"),"_sample_taxonomy_filtered.csv")))

Did we lose any samples?

metadat[which(!(metadat$sample_label %in% blast.dat.out$sample_id)),]

## # A tibble: 22 x 7
##    Sample_name sample_label    site             crab_num tech  locus   MiSeqRun
##          <dbl> <chr>           <chr>            <chr>    <chr> <chr>      <dbl>
##  1          15 KAY-05-c        KAY              5        c     LerayXT        1
##  2          46 KAY-23-a        KAY              23       a     LerayXT        1
##  3          48 KAY-23-c        KAY              23       c     LerayXT        1
##  4          79 MARPT-14-a      MARPT            14       a     LerayXT        1
##  5          80 MARPT-14-b      MARPT            14       b     LerayXT        1
##  6          81 MARPT-14-c      MARPT            14       c     LerayXT        1
##  7          95 PositiveControl Positive Control <NA>     <NA>  LerayXT        1
##  8          96 NegativeControl Negative Control <NA>     <NA>  LerayXT        1
##  9          10 MARPT-12-a      MARPT            12       a     LerayXT        2
## 10          25 MARPT-14-a      MARPT            14       a     LerayXT        2
## # ... with 12 more rows
…
